<?xml version="1.0" encoding="UTF-8" standalone="no"?>
<svg
   class="ionicon"
   viewBox="0 0 64 64"
   version="1.1"
   id="svg4"
   sodipodi:docname="reset.svg"
   width="64"
   height="64"
   inkscape:version="1.2.1 (9c6d41e410, 2022-07-14)"
   xmlns:inkscape="http://www.inkscape.org/namespaces/inkscape"
   xmlns:sodipodi="http://sodipodi.sourceforge.net/DTD/sodipodi-0.dtd"
   xmlns="http://www.w3.org/2000/svg"
   xmlns:svg="http://www.w3.org/2000/svg">
  <defs
     id="defs8" />
  <sodipodi:namedview
     id="namedview6"
     pagecolor="#808080"
     bordercolor="#ff00ff"
     borderopacity="1"
     inkscape:showpageshadow="false"
     inkscape:pageopacity="0"
     inkscape:pagecheckerboard="true"
     inkscape:deskcolor="#808080"
     showgrid="false"
     showborder="true"
     borderlayer="true"
     shape-rendering="auto"
     inkscape:zoom="3.6203867"
     inkscape:cx="119.04806"
     inkscape:cy="9.8055824"
     inkscape:window-width="1920"
     inkscape:window-height="1017"
     inkscape:window-x="-8"
     inkscape:window-y="32"
     inkscape:window-maximized="1"
     inkscape:current-layer="svg4">
    <inkscape:grid
       type="xygrid"
       id="grid2666"
       originx="-230"
       originy="-230" />
  </sodipodi:namedview>
  <path
     d="m 42,56 h 7 a 7,7 0 0 0 7,-7 V 42 M 56,22 V 15 A 7,7 0 0 0 49,8 H 42 M 22,56 H 15 A 7,7 0 0 1 8,49 V 42 M 8,22 v -7 a 7,7 0 0 1 7,-7 h 7"
     fill="none"
     stroke="#ffffff"
     stroke-linecap="round"
     stroke-linejoin="round"
     stroke-width="4"
     id="path2"
     style="stroke:#ffffff;stroke-opacity:1" />
</svg>
