; Engine configuration file.
; It's best edited using the editor UI and not directly,
; since the parameters that go here are not all obvious.
;
; Format:
;   [section] ; section goes between []
;   param=value ; assign values to parameters

config_version=5

[application]

config/name="Telltale"
run/main_scene="res://scenes/world/world.tscn"
config/features=PackedStringArray("4.2", "Mobile")
boot_splash/bg_color=Color(0.188235, 0.188235, 0.188235, 1)
boot_splash/show_image=false
boot_splash/fullsize=false
config/icon="res://icon.svg"

[display]

window/size/viewport_width=1920
window/size/viewport_height=1080
window/size/window_width_override=1024
window/size/window_height_override=576

[editor_plugins]

enabled=PackedStringArray("res://addons/script-tabs/plugin.cfg")

[gui]

theme/custom="res://theme/theme.tres"

[rendering]

renderer/rendering_method="mobile"
environment/defaults/default_clear_color=Color(0.188235, 0.188235, 0.188235, 1)
